{
	"type": "origins:active_self",
	"cooldown": 20,
	"hud_render": {
		"should_render": false
	},
	"condition": {
		"type": "origins:and",
		"conditions": [{
				"type": "origins:equipped_item",
				"equipment_slot": "mainhand",
				"item_condition": {
					"type": "origins:ingredient",
					"ingredient": {
						"item": "minecraft:hay_block"
					}
				}
			},
			{
				"type": "origins:food_level",
				"comparison": "<",
				"compare_to": 20
			}
		]
	},
	"entity_action": {
		"type": "origins:and",
		"actions": [{
				"type": "origins:execute_command",
				"command": "clear @s hay_block 1"
			},
			{
				"type": "origins:execute_command",
				"command": "playsound minecraft:entity.generic.eat player @s ~ ~ ~ 1 1"
			},
			{
				"type": "origins:feed",
				"food": 8,
				"saturation": 3
			}
		]
	},
	"key": {
		"key": "key.use",
		"continuous": true
	},
	"hidden": true
}