{
	"replace": false,
	"values": [
    "minecraft:bow",
    "gateofbabylon:stone_bow",
    "gateofbabylon:iron_bow",
    "gateofbabylon:gold_bow",
    "gateofbabylon:diamond_bow",
    "gateofbabylon:netherite_bow"
  ]
}